var light_pos = [1;0;0];

with shader(
     vertex_shader="/home/kirang/Documents/code/ocaml/stl-reader/shaders/textured.vert",
     fragment_shader="/home/kirang/Documents/code/ocaml/stl-reader/shaders/textured.frag")
     begin
     for i in [1,2,3,4] begin
     texture(model_texture, "/home/kirang/Pictures/p13.png")
     uniform(test_input, camera_position * [i; i; i * i * 3])
     attribute(test_input, [i; i; i; i * 3])
     model("/home/kirang/Documents/code/scad/cube.obj");
    end

    scale(10.0,10,10) begin
    for i in [1,2,3,4] begin
     texture(model_texture, "/home/kirang/Pictures/p13.png")
     uniform(test_input, camera_position * [i; i; i * i * 3])
     attribute(test_input, [i; i; i; i * 3])
     model("/home/kirang/Documents/code/scad/cube.obj");
    end
    end;
    
end;

