var light_pos = [1;0;0];

macro var cars =
     begin
        model("/home/kirang/Documents/code/scad/learning.obj");

        translate(100.0, 0.0, 0.0)
        model("/home/kirang/Documents/code/scad/learning.obj");


        translate(-100.0, 0.0, 0.0)
        model("/home/kirang/Documents/code/scad/learning.obj");
     end;

macro var multi_cars =
     begin
     object(@cars);
   
     translate(0.0, 0.0, 50.0)
     object(@cars);

     translate(0.0, 0.0, 100.0)
     object(@cars);

     translate(0.0, 0.0, 150.0)
     object(@cars);

     end;

layer("example"):
     with shader(
          vertex_shader="../../shaders/textured.vert",
          fragment_shader="../../shaders/textured.frag"
     )
     texture(model_texture,"/home/kirang/Pictures/Learning_mirror_vertically.png",
             wrap_s=repeat,
             min_filter=nearest_mipmap_nearest,
             mag_filter=nearest_mipmap_linear)
     scale(0.05,0.05,0.05)
     translate(100.0, 0.0, 0.0)
     begin
     translate(0.0, 0.0, 0.0)
     object(@multi_cars);

     translate(0.0, 30.0, 0.0)
     object(@multi_cars);

     translate(0.0, -30.0, 0.0)
     object(@multi_cars);

     translate(0.0, -80.0, 0.0)
     object(@multi_cars);

     end;
