\relax 
\abx@aux@refcontext{none/global//global/global}
\@writefile{toc}{\boolfalse {citerequest}\boolfalse {citetracker}\boolfalse {pagetracker}\boolfalse {backtracker}\relax }
\@writefile{lof}{\boolfalse {citerequest}\boolfalse {citetracker}\boolfalse {pagetracker}\boolfalse {backtracker}\relax }
\@writefile{lot}{\boolfalse {citerequest}\boolfalse {citetracker}\boolfalse {pagetracker}\boolfalse {backtracker}\relax }
\@writefile{toc}{\defcounter {refsection}{0}\relax }\@writefile{toc}{\contentsline {section}{\numberline {1}Type system and Data model}{1}\protected@file@percent }
\newlabel{sec:type-system}{{1}{1}}
\@writefile{lof}{\defcounter {refsection}{0}\relax }\@writefile{lof}{\contentsline {figure}{\numberline {1}{\ignorespaces SDL data types}}{1}\protected@file@percent }
\newlabel{fig:sdl-data-types}{{1}{1}}
\@writefile{lol}{\defcounter {refsection}{0}\relax }\@writefile{lol}{\contentsline {listing}{\numberline {1}{\ignorespaces Primitive data expressions}}{1}\protected@file@percent }
\newlabel{lst:primitivt-data-type}{{1}{1}}
\@writefile{lof}{\defcounter {refsection}{0}\relax }\@writefile{lof}{\contentsline {figure}{\numberline {2}{\ignorespaces SDL scene types}}{2}\protected@file@percent }
\newlabel{fig:sdl-scene-types}{{2}{2}}
\@writefile{lol}{\defcounter {refsection}{0}\relax }\@writefile{lol}{\contentsline {listing}{\numberline {2}{\ignorespaces Example scene expressions presenting the type of an object and a shader}}{2}\protected@file@percent }
\newlabel{lst:scene-exprs}{{2}{2}}
\@writefile{toc}{\defcounter {refsection}{0}\relax }\@writefile{toc}{\contentsline {section}{\numberline {2}Syntax specification}{2}\protected@file@percent }
\newlabel{sec:syntax}{{2}{2}}
\@writefile{toc}{\defcounter {refsection}{0}\relax }\@writefile{toc}{\contentsline {section}{\numberline {3}Typing rules of SDL}{5}\protected@file@percent }
\newlabel{sec:typing}{{3}{5}}
\@writefile{toc}{\defcounter {refsection}{0}\relax }\@writefile{toc}{\contentsline {subsection}{\numberline {3.1}Data Type Typing Rules}{5}\protected@file@percent }
\newlabel{sec:data-type-typing}{{3.1}{5}}
\@writefile{toc}{\defcounter {refsection}{0}\relax }\@writefile{toc}{\contentsline {subsection}{\numberline {3.2}Scene Type Typing Rules}{6}\protected@file@percent }
\newlabel{sec:scene-type-typing}{{3.2}{6}}
\@writefile{toc}{\defcounter {refsection}{0}\relax }\@writefile{toc}{\contentsline {section}{\numberline {4}Semantics of SDL}{8}\protected@file@percent }
\newlabel{sec:semnatics}{{4}{8}}
\@writefile{toc}{\defcounter {refsection}{0}\relax }\@writefile{toc}{\contentsline {section}{\numberline {5}Example uses of SDL}{8}\protected@file@percent }
\newlabel{sec:example-uses-sdl}{{5}{8}}
\@writefile{toc}{\defcounter {refsection}{0}\relax }\@writefile{toc}{\contentsline {subsection}{\numberline {5.1}Basic drawing}{8}\protected@file@percent }
\newlabel{sec:simple-drawing}{{5.1}{8}}
\@writefile{lol}{\defcounter {refsection}{0}\relax }\@writefile{lol}{\contentsline {listing}{\numberline {3}{\ignorespaces Basic use of SDL}}{9}\protected@file@percent }
\newlabel{lst:case-study-basic}{{3}{9}}
\@writefile{lol}{\defcounter {refsection}{0}\relax }\@writefile{lol}{\contentsline {listing}{\numberline {4}{\ignorespaces Object composition in SDL}}{9}\protected@file@percent }
\newlabel{lst:case-study-object-comp}{{4}{9}}
\@writefile{toc}{\defcounter {refsection}{0}\relax }\@writefile{toc}{\contentsline {subsection}{\numberline {5.2}Clipping}{9}\protected@file@percent }
\newlabel{sec:clipping}{{5.2}{9}}
\@writefile{lol}{\defcounter {refsection}{0}\relax }\@writefile{lol}{\contentsline {listing}{\numberline {5}{\ignorespaces Clipping in SDL}}{9}\protected@file@percent }
\newlabel{lst:case-study-object-clipping}{{5}{9}}
\@writefile{toc}{\defcounter {refsection}{0}\relax }\@writefile{toc}{\contentsline {subsection}{\numberline {5.3}Deferred rendering}{9}\protected@file@percent }
\newlabel{sec:deferred-rendering}{{5.3}{9}}
\@writefile{lol}{\defcounter {refsection}{0}\relax }\@writefile{lol}{\contentsline {listing}{\numberline {6}{\ignorespaces Use of SDL for deferred rendering}}{10}\protected@file@percent }
\newlabel{lst:case-study-deferred-rendering}{{6}{10}}
\@writefile{toc}{\defcounter {refsection}{0}\relax }\@writefile{toc}{\contentsline {subsection}{\numberline {5.4}Shadow mapping}{10}\protected@file@percent }
\newlabel{sec:shadow-mapping}{{5.4}{10}}
\@writefile{lol}{\defcounter {refsection}{0}\relax }\@writefile{lol}{\contentsline {listing}{\numberline {7}{\ignorespaces Use of SDL for Shadow mapping}}{10}\protected@file@percent }
\newlabel{lst:case-study-shadow-mapping}{{7}{10}}
